<?xml version="1.0" encoding="utf-8"?>
<!-- Generator: Adobe Illustrator 17.1.0, SVG Export Plug-In . SVG Version: 6.00 Build 0)  -->
<!DOCTYPE svg PUBLIC "-//W3C//DTD SVG 1.1//EN" "http://www.w3.org/Graphics/SVG/1.1/DTD/svg11.dtd">
<svg version="1.1" id="Layer_1" xmlns="http://www.w3.org/2000/svg" xmlns:xlink="http://www.w3.org/1999/xlink" x="0px" y="0px"
	 viewBox="6.5 90.5 243 19" enable-background="new 6.5 90.5 243 19" xml:space="preserve">
<g>
	<g>
		<defs>
			<rect id="SVGID_1_" x="6.5" y="90.5" width="242.9" height="19"/>
		</defs>
		<clipPath id="SVGID_2_">
			<use xlink:href="#SVGID_1_"  overflow="visible"/>
		</clipPath>
		<path clip-path="url(#SVGID_2_)" d="M16.5,97.8h-5.2v7.9c0,1.4,0.6,2.1,2.7,2.1c1,0,1.8-0.2,2.9-0.4v1.8c-1.5,0.2-2.5,0.3-3.4,0.3
			c-4.3,0-4.3-2.6-4.3-3.6v-8.1H6.5V96h2.8v-4.3h2V96h5.2V97.8z"/>
	</g>
</g>
<g>
	<g>
		<defs>
			<rect id="SVGID_3_" x="6.5" y="90.5" width="242.9" height="19"/>
		</defs>
		<clipPath id="SVGID_4_">
			<use xlink:href="#SVGID_3_"  overflow="visible"/>
		</clipPath>
		<path clip-path="url(#SVGID_4_)" d="M32,107.1c0,0.8,0.1,1.3,0.2,2h-2c-0.1-0.4-0.3-1-0.3-1.6c-1.9,1.2-4,2-6.5,2
			c-2.1,0-5.3-0.6-5.3-4c0-4.5,6.8-4.7,11.9-5.3v-0.5c0-1.8-2.1-2.5-4.2-2.5c-3.5,0-4.7,1.5-5.3,2.2L19,98.3
			c0.8-0.9,2.2-2.8,6.7-2.8c3,0,6.4,0.9,6.4,4.2L32,107.1L32,107.1z M30,101.9c-5.9,0.6-9.9,1.1-9.9,3.6c0,2,2.3,2.3,3.3,2.3
			c2.8,0,5.3-1.3,6.6-2V101.9z"/>
	</g>
</g>
<g>
	<g>
		<defs>
			<rect id="SVGID_5_" x="6.5" y="90.5" width="242.9" height="19"/>
		</defs>
		<clipPath id="SVGID_6_">
			<use xlink:href="#SVGID_5_"  overflow="visible"/>
		</clipPath>
		<polygon clip-path="url(#SVGID_6_)" points="35.8,91 37.9,91 37.9,102.5 46.2,96 49.3,96 43.2,100.8 50.1,109.1 47.6,109.1 
			41.6,101.9 37.9,104.8 37.9,109.1 35.8,109.1 		"/>
	</g>
</g>
<g>
	<g>
		<defs>
			<rect id="SVGID_7_" x="6.5" y="90.5" width="242.9" height="19"/>
		</defs>
		<clipPath id="SVGID_8_">
			<use xlink:href="#SVGID_7_"  overflow="visible"/>
		</clipPath>
		<path clip-path="url(#SVGID_8_)" d="M65.9,106.4c-1.3,1.4-2.6,3.1-7.1,3.1c-4.4,0-7.4-3-7.4-7c0-4.1,3.1-6.9,7.1-6.9
			c4.2,0,7.8,2.2,7.7,7.3H53.5c0.2,2.4,2.2,4.8,5.6,4.8c3.4,0,4.5-1.5,5.3-2.5L65.9,106.4z M64.1,101.3c-0.4-2.1-2.2-3.9-5.3-3.9
			c-3,0-4.6,1.5-5.2,3.9H64.1z"/>
	</g>
</g>
<g>
	<g>
		<defs>
			<rect id="SVGID_9_" x="6.5" y="90.5" width="242.9" height="19"/>
		</defs>
		<clipPath id="SVGID_10_">
			<use xlink:href="#SVGID_9_"  overflow="visible"/>
		</clipPath>
		<path clip-path="url(#SVGID_10_)" d="M69.5,105c1.3,1.6,3.2,2.8,5.9,2.8c2.1,0,4.1-0.7,4.1-2.2c0-3.7-10.9-0.5-10.9-5.9
			c0-3,3.1-4,5.8-4c4.4,0,6,1.9,6.7,2.8l-1.4,1.3c-1.1-1.4-2.7-2.4-5.3-2.4c-2.4,0-3.7,0.8-3.7,2.1c0,3.4,10.9,0.3,10.9,5.9
			c0,3-2.9,4.1-6.3,4.1c-2.9,0-5.3-0.8-7.2-3.1L69.5,105z"/>
	</g>
</g>
<g>
	<g>
		<defs>
			<rect id="SVGID_11_" x="6.5" y="90.5" width="242.9" height="19"/>
		</defs>
		<clipPath id="SVGID_12_">
			<use xlink:href="#SVGID_11_"  overflow="visible"/>
		</clipPath>
		<path clip-path="url(#SVGID_12_)" d="M105,100.2c-0.6-0.9-1.8-2.9-5.1-2.9c-2.7,0-5.5,1.6-5.5,5.4c0,2.9,2.4,5,5.6,5
			c2.1,0,3.9-0.6,5.3-3l1.7,1c-1.1,2-3,3.8-7.1,3.8c-4.7,0-7.6-3-7.6-7c0-4.5,3.4-6.9,7.5-6.9c3.9,0,5.8,1.9,6.8,3.6L105,100.2z"/>
	</g>
</g>
<g>
	<g>
		<defs>
			<rect id="SVGID_13_" x="6.5" y="90.5" width="242.9" height="19"/>
		</defs>
		<clipPath id="SVGID_14_">
			<use xlink:href="#SVGID_13_"  overflow="visible"/>
		</clipPath>
		<path clip-path="url(#SVGID_14_)" d="M123,107.1c0,0.8,0.1,1.3,0.2,2h-2c-0.1-0.4-0.3-1-0.3-1.6c-1.9,1.2-4,2-6.5,2
			c-2.1,0-5.3-0.6-5.3-4c0-4.5,6.8-4.7,11.9-5.3v-0.5c0-1.8-2.1-2.5-4.2-2.5c-3.5,0-4.7,1.5-5.3,2.2l-1.5-1.1
			c0.8-0.9,2.2-2.8,6.7-2.8c3,0,6.4,0.9,6.4,4.2L123,107.1L123,107.1z M121,101.9c-5.9,0.6-9.9,1.1-9.9,3.6c0,2,2.3,2.3,3.3,2.3
			c2.8,0,5.3-1.3,6.6-2V101.9z"/>
	</g>
</g>
<g>
	<g>
		<defs>
			<rect id="SVGID_15_" x="6.5" y="90.5" width="242.9" height="19"/>
		</defs>
		<clipPath id="SVGID_16_">
			<use xlink:href="#SVGID_15_"  overflow="visible"/>
		</clipPath>
		<path clip-path="url(#SVGID_16_)" d="M126.8,96h2v2.7c1.2-1.3,2.8-3.1,5.4-3.1c0.5,0,0.8,0,1.2,0.1v2c-0.3,0-0.8-0.2-1.6-0.2
			c-2.9,0-4.9,3.3-5,3.7v7.8h-2C126.8,109,126.8,96,126.8,96z"/>
	</g>
</g>
<g>
	<g>
		<defs>
			<rect id="SVGID_17_" x="6.5" y="90.5" width="242.9" height="19"/>
		</defs>
		<clipPath id="SVGID_18_">
			<use xlink:href="#SVGID_17_"  overflow="visible"/>
		</clipPath>
		<path clip-path="url(#SVGID_18_)" d="M151.4,106.4c-1.3,1.4-2.6,3.1-7.1,3.1c-4.4,0-7.4-3-7.4-7c0-4.1,3.1-6.9,7.1-6.9
			c4.2,0,7.8,2.2,7.7,7.3h-12.8c0.2,2.4,2.2,4.8,5.6,4.8c3.4,0,4.5-1.5,5.3-2.5L151.4,106.4z M149.5,101.3c-0.4-2.1-2.2-3.9-5.3-3.9
			c-3,0-4.6,1.5-5.2,3.9H149.5z"/>
	</g>
</g>
<g>
	<g>
		<defs>
			<rect id="SVGID_19_" x="6.5" y="90.5" width="242.9" height="19"/>
		</defs>
		<clipPath id="SVGID_20_">
			<use xlink:href="#SVGID_19_"  overflow="visible"/>
		</clipPath>
		<path clip-path="url(#SVGID_20_)" d="M162.6,102.3c0-3.7,2.9-6.7,7.5-6.7s7.5,3,7.5,6.7c0,4.6-3.1,7.2-7.5,7.2
			S162.6,107,162.6,102.3 M175.6,102.6c0-2.4-1.6-5.2-5.5-5.2s-5.5,2.9-5.5,5.2c0,3.1,2.1,5.2,5.5,5.2S175.6,105.7,175.6,102.6"/>
	</g>
</g>
<g>
	<g>
		<defs>
			<rect id="SVGID_21_" x="6.5" y="90.5" width="242.9" height="19"/>
		</defs>
		<clipPath id="SVGID_22_">
			<use xlink:href="#SVGID_21_"  overflow="visible"/>
		</clipPath>
		<path clip-path="url(#SVGID_22_)" d="M182.3,98H179v-1.7h3.3v-1c0-2.1,0.7-4.8,4.6-4.8c2.1,0,2.9,0.2,3.4,0.3v1.8
			c-0.9-0.2-1.8-0.4-2.8-0.4c-2.8,0-3.2,1.3-3.2,3.2v0.8h5.4v1.7h-5.4V109h-2V98z"/>
	</g>
</g>
<g>
	<g>
		<defs>
			<rect id="SVGID_23_" x="6.5" y="90.5" width="242.9" height="19"/>
		</defs>
		<clipPath id="SVGID_24_">
			<use xlink:href="#SVGID_23_"  overflow="visible"/>
		</clipPath>
		<path clip-path="url(#SVGID_24_)" d="M201.8,91h2v7c1.4-1.2,3.2-2.3,5.5-2.3c1.6,0,5.4,0.4,5.4,4.8v8.6h-2v-8.2
			c0.1-3.1-2.2-3.5-3.6-3.5c-2.2,0-4.1,1.4-5.2,2.6v9.1h-2L201.8,91L201.8,91z"/>
	</g>
</g>
<g>
	<g>
		<defs>
			<rect id="SVGID_25_" x="6.5" y="90.5" width="242.9" height="19"/>
		</defs>
		<clipPath id="SVGID_26_">
			<use xlink:href="#SVGID_25_"  overflow="visible"/>
		</clipPath>
		<path clip-path="url(#SVGID_26_)" d="M231.3,107.1c0,0.8,0.1,1.3,0.2,2h-2c-0.1-0.4-0.3-1-0.3-1.6c-1.9,1.2-4,2-6.5,2
			c-2.1,0-5.3-0.6-5.3-4c0-4.5,6.8-4.7,11.9-5.3v-0.5c0-1.8-2.1-2.5-4.2-2.5c-3.5,0-4.7,1.5-5.3,2.2l-1.5-1.1
			c0.8-0.9,2.2-2.8,6.7-2.8c3,0,6.4,0.9,6.4,4.2L231.3,107.1L231.3,107.1z M229.3,101.9c-5.9,0.6-9.9,1.1-9.9,3.6
			c0,2,2.3,2.3,3.3,2.3c2.8,0,5.3-1.3,6.6-2L229.3,101.9L229.3,101.9z"/>
	</g>
</g>
<g>
	<g>
		<defs>
			<rect id="SVGID_27_" x="6.5" y="90.5" width="242.9" height="19"/>
		</defs>
		<clipPath id="SVGID_28_">
			<use xlink:href="#SVGID_27_"  overflow="visible"/>
		</clipPath>
		<path clip-path="url(#SVGID_28_)" d="M237.3,93.3H235V91h2.3V93.3z M235.1,96h2v13.1h-2V96z"/>
	</g>
</g>
<g>
	<g>
		<defs>
			<polyline id="SVGID_29_" points="249.4,90.5 249.4,109.5 6.5,109.5 6.5,90.5 			"/>
		</defs>
		<clipPath id="SVGID_30_">
			<use xlink:href="#SVGID_29_"  overflow="visible"/>
		</clipPath>
		<path clip-path="url(#SVGID_30_)" d="M240.8,96h2v2.7c1.2-1.3,2.8-3.1,5.4-3.1c0.5,0,0.8,0,1.2,0.1v2c-0.3,0-0.8-0.2-1.6-0.2
			c-2.9,0-4.9,3.3-5,3.7v7.8h-2L240.8,96L240.8,96z"/>
	</g>
</g>
</svg>
